{
  "changedFilesIos": [
    "bower.json",
    "res\\icons\\android\\icon-72-hdpi.png",
    "res\\screens\\android\\screen-mdpi-landscape.png",
    "merges\\android\\scripts\\android2.3-jscompat.js",
    "merges\\windows\\scripts\\winstore-jscompat.js",
    "res\\icons\\ios\\icon-60.png",
    "res\\screens\\ios\\screen-iphone-landscape-736h.png",
    "res\\icons\\windows\\StoreLogo.scale-100.png",
    "www\\scripts\\index.js",
    "res\\icons\\android\\icon-48-mdpi.png",
    "res\\icons\\ios\\icon-72.png",
    "res\\icons\\ios\\icon-76.png",
    "res\\screens\\ios\\screen-ipad-portrait-2x.png",
    "res\\screens\\ios\\screen-iphone-portrait-2x.png",
    "res\\icons\\windows\\Square71x71Logo.scale-240.png",
    "merges\\android\\scripts\\platformOverrides.js",
    "res\\screens\\android\\screen-hdpi-portrait.png",
    "www\\css\\index.css",
    "res\\icons\\windows\\StoreLogo.scale-240.png",
    "res\\screens\\ios\\screen-ipad-landscape.png",
    "res\\icons\\ios\\icon-60-3x.png",
    "res\\screens\\wp8\\SplashScreenImage.jpg",
    "res\\screens\\ios\\screen-ipad-landscape-2x.png",
    "res\\screens\\ios\\screen-iphone-568h-2x.png",
    "res\\icons\\windows\\Square150x150Logo.scale-100.png",
    "package.json",
    "res\\screens\\android\\screen-ldpi-landscape.png",
    "res\\icons\\windows\\Wide310x150Logo.scale-240.png",
    "res\\icons\\windows\\Wide310x150Logo.scale-100.png",
    "res\\icons\\ios\\icon-72-2x.png",
    "res\\icons\\ios\\icon-76-2x.png",
    "res\\icons\\ios\\icon-small.png",
    "res\\icons\\windows\\Square30x30Logo.scale-100.png",
    "res\\icons\\wp8\\Background.png",
    "www\\index.html",
    "res\\icons\\ios\\icon-40.png",
    "res\\icons\\ios\\icon-60-2x.png",
    "res\\screens\\android\\screen-ldpi-portrait.png",
    "res\\native\\android\\ant.properties",
    "res\\icons\\windows\\Square310x310Logo.scale-100.png",
    "www\\scripts\\platformOverrides.js",
    "taco.json",
    "res\\icons\\windows\\Square150x150Logo.scale-240.png",
    "res\\icons\\android\\icon-36-ldpi.png",
    "merges\\windows\\scripts\\platformOverrides.js",
    "res\\screens\\ios\\screen-iphone-portrait.png",
    "Project_Readme.html",
    "res\\screens\\android\\screen-xhdpi-portrait.png",
    "res\\icons\\ios\\icon-50-2x.png",
    "res\\icons\\ios\\icon-57-2x.png",
    "res\\icons\\ios\\icon-50.png",
    "res\\icons\\ios\\icon-57.png",
    "res\\icons\\ios\\icon-small-2x.png",
    "res\\icons\\windows\\Square70x70Logo.scale-100.png",
    "res\\screens\\windows\\SplashScreen.scale-240.png",
    "res\\icons\\android\\icon-96-xhdpi.png",
    "res\\icons\\wp8\\ApplicationIcon.png",
    "res\\icons\\ios\\icon-40-2x.png",
    "res\\screens\\ios\\screen-iphone-portrait-667h.png",
    "res\\screens\\android\\screen-hdpi-landscape.png",
    "res\\screens\\windows\\SplashScreenPhone.scale-240.png",
    "res\\screens\\windows\\SplashScreen.scale-100.png",
    "res\\screens\\ios\\screen-iphone-portrait-736h.png",
    "res\\screens\\ios\\screen-ipad-portrait.png",
    "res\\screens\\android\\screen-xhdpi-landscape.png",
    "res\\icons\\windows\\Square44x44Logo.scale-240.png",
    "res\\screens\\android\\screen-mdpi-portrait.png",
    "config.xml",
    "plugins\\org.apache.cordova.media\\package.json",
    "plugins\\org.apache.cordova.media\\doc\\de\\index.md",
    "plugins\\org.apache.cordova.media\\CONTRIBUTING.md",
    "plugins\\org.apache.cordova.media\\www\\Media.js",
    "plugins\\org.apache.cordova.media\\doc\\pl\\index.md",
    "plugins\\org.apache.cordova.media\\src\\ios\\CDVSound.h",
    "plugins\\org.apache.cordova.media\\tests\\plugin.xml",
    "plugins\\org.apache.cordova.media\\NOTICE",
    "plugins\\org.apache.cordova.media\\RELEASENOTES.md",
    "plugins\\org.apache.cordova.media\\src\\ios\\CDVSound.m",
    "plugins\\org.apache.cordova.media\\doc\\zh\\index.md",
    "plugins\\org.apache.cordova.media\\tests\\tests.js",
    "plugins\\org.apache.cordova.media\\src\\blackberry10\\index.js",
    "plugins\\org.apache.cordova.media\\doc\\ru\\index.md",
    "plugins\\org.apache.cordova.media\\README.md",
    "plugins\\fetch.json",
    "plugins\\org.apache.cordova.media\\src\\android\\FileHelper.java",
    "plugins\\org.apache.cordova.media\\doc\\fr\\index.md",
    "plugins\\org.apache.cordova.media\\src\\android\\AudioPlayer.java",
    "plugins\\org.apache.cordova.media\\doc\\it\\index.md",
    "plugins\\org.apache.cordova.media\\LICENSE",
    "plugins\\org.apache.cordova.media\\src\\tizen\\MediaProxy.js",
    "plugins\\org.apache.cordova.media\\doc\\ko\\index.md",
    "plugins\\org.apache.cordova.media\\doc\\ja\\index.md",
    "plugins\\org.apache.cordova.media\\www\\MediaError.js",
    "plugins\\org.apache.cordova.media\\src\\windows8\\MediaProxy.js",
    "plugins\\org.apache.cordova.media\\doc\\es\\index.md",
    "plugins\\org.apache.cordova.media\\src\\ubuntu\\media.cpp",
    "plugins\\org.apache.cordova.media\\doc\\index.md",
    "plugins\\org.apache.cordova.media\\plugin.xml",
    "plugins\\org.apache.cordova.media\\src\\wp\\AudioPlayer.cs",
    "plugins\\org.apache.cordova.media\\src\\wp\\Media.cs",
    "plugins\\org.apache.cordova.media\\src\\ubuntu\\media.h",
    "plugins\\org.apache.cordova.media\\src\\android\\AudioHandler.java",
    "plugins\\org.apache.cordova.file\\www\\blackberry10\\removeRecursively.js",
    "plugins\\org.apache.cordova.file\\www\\FileError.js",
    "plugins\\org.apache.cordova.file\\src\\android\\LocalFilesystemURL.java",
    "plugins\\org.apache.cordova.file\\LICENSE",
    "plugins\\org.apache.cordova.file\\www\\blackberry10\\info.js",
    "plugins\\org.apache.cordova.file\\www\\blackberry10\\FileProxy.js",
    "plugins\\org.apache.cordova.file\\www\\firefoxos\\FileSystem.js",
    "plugins\\org.apache.cordova.file\\CONTRIBUTING.md",
    "plugins\\org.apache.cordova.file\\src\\android\\FileHelper.java",
    "plugins\\org.apache.cordova.file\\www\\ubuntu\\fileSystems-roots.js",
    "plugins\\org.apache.cordova.file\\www\\android\\FileSystem.js",
    "plugins\\org.apache.cordova.file\\src\\firefoxos\\FileProxy.js",
    "plugins\\org.apache.cordova.file\\package.json",
    "plugins\\org.apache.cordova.file\\www\\FileUploadResult.js",
    "plugins\\org.apache.cordova.file\\src\\android\\TypeMismatchException.java",
    "plugins\\org.apache.cordova.file\\www\\resolveLocalFileSystemURI.js",
    "plugins\\org.apache.cordova.file\\src\\windows\\FileProxy.js",
    "plugins\\org.apache.cordova.file\\www\\DirectoryReader.js",
    "plugins\\org.apache.cordova.file\\www\\fileSystems.js",
    "plugins\\org.apache.cordova.file\\www\\ProgressEvent.js",
    "plugins\\org.apache.cordova.file\\doc\\index.md",
    "plugins\\org.apache.cordova.file\\doc\\fr\\index.md",
    "plugins\\org.apache.cordova.file\\www\\blackberry10\\readAsDataURL.js",
    "plugins\\org.apache.cordova.file\\www\\blackberry10\\FileSystem.js",
    "plugins\\org.apache.cordova.file\\doc\\es\\index.md",
    "plugins\\org.apache.cordova.file\\www\\Entry.js",
    "plugins\\org.apache.cordova.file\\www\\Metadata.js",
    "plugins\\org.apache.cordova.file\\www\\fileSystems-roots.js",
    "plugins\\org.apache.cordova.file\\doc\\it\\index.md",
    "plugins\\org.apache.cordova.file\\doc\\ru\\index.md",
    "plugins\\org.apache.cordova.file\\www\\blackberry10\\copyTo.js",
    "plugins\\org.apache.cordova.file\\src\\android\\EncodingException.java",
    "plugins\\org.apache.cordova.file\\doc\\fr\\plugins.md",
    "plugins\\org.apache.cordova.file\\www\\blackberry10\\requestAllFileSystems.js",
    "plugins\\org.apache.cordova.file\\www\\blackberry10\\getFileMetadata.js",
    "plugins\\org.apache.cordova.file\\NOTICE",
    "plugins\\org.apache.cordova.file\\www\\blackberry10\\getParent.js",
    "plugins\\org.apache.cordova.file\\www\\blackberry10\\getFile.js",
    "plugins\\org.apache.cordova.file\\src\\android\\FileUtils.java",
    "plugins\\org.apache.cordova.file\\www\\blackberry10\\truncate.js",
    "plugins\\org.apache.cordova.file\\www\\blackberry10\\remove.js",
    "plugins\\org.apache.cordova.file\\src\\blackberry10\\index.js",
    "plugins\\org.apache.cordova.file\\src\\android\\Filesystem.java",
    "plugins\\org.apache.cordova.file\\www\\blackberry10\\getMetadata.js",
    "plugins\\org.apache.cordova.file\\src\\ios\\CDVAssetLibraryFilesystem.m",
    "plugins\\org.apache.cordova.file\\src\\ios\\CDVLocalFilesystem.h",
    "plugins\\org.apache.cordova.file\\src\\android\\NoModificationAllowedException.java",
    "plugins\\org.apache.cordova.file\\doc\\it\\plugins.md",
    "plugins\\org.apache.cordova.file\\src\\ubuntu\\file.h",
    "plugins\\org.apache.cordova.file\\www\\wp\\FileUploadOptions.js",
    "plugins\\org.apache.cordova.file\\doc\\de\\plugins.md",
    "plugins\\org.apache.cordova.file\\src\\android\\FileExistsException.java",
    "plugins\\org.apache.cordova.file\\doc\\ko\\plugins.md",
    "plugins\\org.apache.cordova.file\\www\\blackberry10\\requestAnimationFrame.js",
    "plugins\\org.apache.cordova.file\\www\\blackberry10\\getDirectory.js",
    "plugins\\org.apache.cordova.file\\doc\\ja\\plugins.md",
    "plugins\\org.apache.cordova.file\\tests\\tests.js",
    "plugins\\org.apache.cordova.file\\www\\FileUploadOptions.js",
    "plugins\\org.apache.cordova.file\\src\\wp\\File.cs",
    "plugins\\org.apache.cordova.file\\www\\FileEntry.js",
    "plugins\\org.apache.cordova.file\\www\\blackberry10\\write.js",
    "plugins\\org.apache.cordova.file\\src\\ios\\CDVAssetLibraryFilesystem.h",
    "plugins\\org.apache.cordova.file\\plugin.xml",
    "plugins\\org.apache.cordova.file\\src\\android\\InvalidModificationException.java",
    "plugins\\org.apache.cordova.file\\www\\ubuntu\\FileWriter.js",
    "plugins\\org.apache.cordova.file\\www\\blackberry10\\requestFileSystem.js",
    "plugins\\org.apache.cordova.file\\www\\DirectoryEntry.js",
    "plugins\\org.apache.cordova.file\\www\\blackberry10\\resolveLocalFileSystemURI.js",
    "plugins\\org.apache.cordova.file\\src\\ios\\CDVLocalFilesystem.m",
    "plugins\\org.apache.cordova.file\\www\\FileSystem.js",
    "plugins\\org.apache.cordova.file\\src\\ios\\CDVFile.h",
    "plugins\\org.apache.cordova.file\\src\\ios\\CDVFile.m",
    "plugins\\org.apache.cordova.file\\RELEASENOTES.md",
    "plugins\\org.apache.cordova.file\\www\\blackberry10\\moveTo.js",
    "plugins\\org.apache.cordova.file\\www\\requestFileSystem.js",
    "plugins\\org.apache.cordova.file\\www\\blackberry10\\readEntries.js",
    "plugins\\org.apache.cordova.file\\tests\\plugin.xml",
    "plugins\\org.apache.cordova.file\\doc\\plugins.md",
    "plugins\\org.apache.cordova.file\\www\\Flags.js",
    "plugins\\org.apache.cordova.file\\doc\\ko\\index.md",
    "plugins\\org.apache.cordova.file\\www\\FileWriter.js",
    "plugins\\org.apache.cordova.file\\src\\android\\LocalFilesystem.java",
    "plugins\\org.apache.cordova.file\\doc\\pl\\plugins.md",
    "plugins\\org.apache.cordova.file\\README.md",
    "plugins\\org.apache.cordova.file\\www\\blackberry10\\readAsText.js",
    "plugins\\org.apache.cordova.file\\www\\ios\\FileSystem.js",
    "plugins\\org.apache.cordova.file\\www\\ubuntu\\FileSystem.js",
    "plugins\\org.apache.cordova.file\\doc\\pl\\index.md",
    "plugins\\org.apache.cordova.file\\doc\\zh\\plugins.md",
    "plugins\\org.apache.cordova.file\\www\\blackberry10\\createEntryFromNative.js",
    "plugins\\org.apache.cordova.file\\doc\\de\\index.md",
    "plugins\\org.apache.cordova.file\\src\\android\\DirectoryManager.java",
    "plugins\\org.apache.cordova.file\\www\\blackberry10\\setMetadata.js",
    "plugins\\org.apache.cordova.file\\www\\blackberry10\\readAsArrayBuffer.js",
    "plugins\\org.apache.cordova.file\\doc\\zh\\index.md",
    "plugins\\org.apache.cordova.file\\www\\blackberry10\\readAsBinaryString.js",
    "plugins\\org.apache.cordova.file\\www\\fileSystemPaths.js",
    "plugins\\org.apache.cordova.file\\doc\\ja\\index.md",
    "plugins\\org.apache.cordova.file\\src\\ubuntu\\file.cpp",
    "plugins\\org.apache.cordova.file\\www\\FileReader.js",
    "plugins\\org.apache.cordova.file\\www\\LocalFileSystem.js",
    "plugins\\org.apache.cordova.file\\doc\\es\\plugins.md",
    "plugins\\org.apache.cordova.file\\src\\android\\ContentFilesystem.java",
    "plugins\\org.apache.cordova.file\\www\\File.js",
    "plugins\\org.apache.cordova.file\\doc\\ru\\plugins.md",
    "plugins\\org.apache.cordova.camera\\src\\ios\\CDVJpegHeaderWriter.m",
    "plugins\\org.apache.cordova.camera\\src\\ios\\CDVJpegHeaderWriter.h",
    "plugins\\org.apache.cordova.camera\\www\\CameraConstants.js",
    "plugins\\org.apache.cordova.camera\\doc\\pl\\index.md",
    "plugins\\org.apache.cordova.camera\\RELEASENOTES.md",
    "plugins\\org.apache.cordova.camera\\tests\\ios\\CDVCameraTest\\CDVCameraTest.xcodeproj\\project.pbxproj",
    "plugins\\org.apache.cordova.camera\\src\\ubuntu\\back.png",
    "plugins\\org.apache.cordova.camera\\tests\\ios\\CDVCameraTest\\CDVCameraLibTests\\Info.plist",
    "plugins\\org.apache.cordova.camera\\package.json1",
    "plugins\\org.apache.cordova.camera\\src\\ubuntu\\shoot.png",
    "plugins\\org.apache.cordova.camera\\src\\windows\\CameraProxy.js",
    "plugins\\org.apache.cordova.camera\\src\\ubuntu\\CaptureWidget.qml",
    "plugins\\org.apache.cordova.camera\\src\\ubuntu\\camera.cpp",
    "plugins\\org.apache.cordova.camera\\NOTICE",
    "plugins\\org.apache.cordova.camera\\tests\\ios\\CDVCameraTest\\CDVCameraTest.xcodeproj\\project.xcworkspace\\contents.xcworkspacedata",
    "plugins\\org.apache.cordova.camera\\package.json",
    "plugins\\org.apache.cordova.camera\\www\\ios\\CameraPopoverHandle.js",
    "plugins\\org.apache.cordova.camera\\src\\ubuntu\\toolbar-left.png",
    "plugins\\org.apache.cordova.camera\\tests\\ios\\CDVCameraTest\\CDVCameraTest.xcodeproj\\project.xcworkspace\\xcshareddata\\CDVCameraTest.xccheckout",
    "plugins\\org.apache.cordova.camera\\src\\wp\\Camera.cs",
    "plugins\\org.apache.cordova.camera\\plugin.xml",
    "plugins\\org.apache.cordova.camera\\src\\ubuntu\\toolbar-right.png",
    "plugins\\org.apache.cordova.camera\\doc\\ru\\index.md",
    "plugins\\org.apache.cordova.camera\\tests\\ios\\.npmignore",
    "plugins\\org.apache.cordova.camera\\www\\blackberry10\\assets\\camera.js",
    "plugins\\org.apache.cordova.camera\\src\\ubuntu\\toolbar-middle.png",
    "plugins\\org.apache.cordova.camera\\www\\blackberry10\\assets\\camera.html",
    "plugins\\org.apache.cordova.camera\\README.md",
    "plugins\\org.apache.cordova.camera\\src\\android\\FileHelper.java",
    "plugins\\org.apache.cordova.camera\\doc\\ko\\index.md",
    "plugins\\org.apache.cordova.camera\\src\\ios\\UIImage+CropScaleOrientation.m",
    "plugins\\org.apache.cordova.camera\\src\\ios\\UIImage+CropScaleOrientation.h",
    "plugins\\org.apache.cordova.camera\\src\\android\\ExifHelper.java",
    "plugins\\org.apache.cordova.camera\\src\\blackberry10\\index.js",
    "plugins\\org.apache.cordova.camera\\www\\CameraPopoverHandle.js",
    "plugins\\org.apache.cordova.camera\\tests\\plugin.xml",
    "plugins\\org.apache.cordova.camera\\tests\\tests.js",
    "plugins\\org.apache.cordova.camera\\src\\ios\\CDVExif.h",
    "plugins\\org.apache.cordova.camera\\doc\\de\\index.md",
    "plugins\\org.apache.cordova.camera\\src\\browser\\CameraProxy.js",
    "plugins\\org.apache.cordova.camera\\tests\\ios\\CDVCameraTest\\CDVCameraTest.xcodeproj\\xcshareddata\\xcschemes\\CDVCameraLibTests.xcscheme",
    "plugins\\org.apache.cordova.camera\\doc\\es\\index.md",
    "plugins\\org.apache.cordova.camera\\www\\CameraPopoverOptions.js",
    "plugins\\org.apache.cordova.camera\\src\\firefoxos\\CameraProxy.js",
    "plugins\\org.apache.cordova.camera\\tests\\ios\\CDVCameraTest.xcworkspace\\contents.xcworkspacedata",
    "plugins\\org.apache.cordova.camera\\src\\ios\\CDVCamera.m",
    "plugins\\org.apache.cordova.camera\\src\\ios\\CDVCamera.h",
    "plugins\\org.apache.cordova.camera\\tests\\ios\\package.json",
    "plugins\\org.apache.cordova.camera\\CONTRIBUTING.md",
    "plugins\\org.apache.cordova.camera\\doc\\it\\index.md",
    "plugins\\org.apache.cordova.camera\\tests\\ios\\CDVCameraTest\\CDVCameraLibTests\\CameraTest.m",
    "plugins\\org.apache.cordova.camera\\doc\\index.md",
    "plugins\\org.apache.cordova.camera\\doc\\fr\\index.md",
    "plugins\\org.apache.cordova.camera\\tests\\ios\\README.md",
    "plugins\\org.apache.cordova.camera\\www\\Camera.js",
    "plugins\\org.apache.cordova.camera\\doc\\ja\\index.md",
    "plugins\\org.apache.cordova.camera\\doc\\zh\\index.md",
    "plugins\\org.apache.cordova.camera\\src\\ubuntu\\camera.h",
    "plugins\\org.apache.cordova.camera\\tests\\ios\\CDVCameraTest.xcworkspace\\xcshareddata\\xcschemes\\CordovaLib.xcscheme",
    "plugins\\org.apache.cordova.camera\\tests\\ios\\CDVCameraTest\\CDVCameraTest.xcodeproj\\xcshareddata\\xcschemes\\CDVCameraLib.xcscheme",
    "plugins\\org.apache.cordova.camera\\LICENSE",
    "plugins\\org.apache.cordova.camera\\src\\android\\CameraLauncher.java",
    "plugins\\org.apache.cordova.camera\\tests\\ios\\CDVCameraTest.xcworkspace\\xcshareddata\\CDVCameraTest.xccheckout"
  ],
  "deletedFilesIos": [],
  "addedPluginsIos": [
    "org.apache.cordova.media@0.2.16",
    "org.apache.cordova.camera@0.3.6"
  ],
  "deletedPluginsIos": [],
  "changedFiles": [
    "www\\index.html"
  ],
  "deletedFiles": [],
  "addedPlugins": [],
  "deletedPlugins": []
}