<?xml version="1.0" encoding="UTF-8"?>
<gpx xsi:schemaLocation="http://www.topografix.com/GPX/1/0 http://www.topografix.com/GPX/1/0/gpx.xsd" creator="http://tracks4bikers.com" version="1.1" xmlns:xsi="http://www.w3.org/2001/XMLSchema-instance" xmlns="http://www.topografix.com/GPX/1/0">
  <trk>
    <name>Branderschrofen</name>
    <trkseg>
      <trkpt lat="47.5556" lon="10.7404">
        <time>2015-05-05T00:00:00Z</time>
        <ele>824</ele>
      </trkpt>
      <trkpt lat="47.555" lon="10.7408">
        <time>2015-05-05T00:00:25Z</time>
        <ele>831</ele>
      </trkpt>
      <trkpt lat="47.5549" lon="10.741">
        <time>2015-05-05T00:00:36Z</time>
        <ele>834</ele>
      </trkpt>
      <trkpt lat="47.5546" lon="10.7411">
        <time>2015-05-05T00:00:46Z</time>
        <ele>837</ele>
      </trkpt>
      <trkpt lat="47.5542" lon="10.741">
        <time>2015-05-05T00:01:12Z</time>
        <ele>844</ele>
      </trkpt>
      <trkpt lat="47.554" lon="10.7411">
        <time>2015-05-05T00:01:22Z</time>
        <ele>847</ele>
      </trkpt>
      <trkpt lat="47.5539" lon="10.7416">
        <time>2015-05-05T00:01:37Z</time>
        <ele>851</ele>
      </trkpt>
      <trkpt lat="47.5539" lon="10.7421">
        <time>2015-05-05T00:01:55Z</time>
        <ele>856</ele>
      </trkpt>
      <trkpt lat="47.5541" lon="10.7424">
        <time>2015-05-05T00:02:09Z</time>
        <ele>860</ele>
      </trkpt>
      <trkpt lat="47.554" lon="10.7426">
        <time>2015-05-05T00:02:20Z</time>
        <ele>863</ele>
      </trkpt>
      <trkpt lat="47.554" lon="10.7428">
        <time>2015-05-05T00:02:24Z</time>
        <ele>864</ele>
      </trkpt>
      <trkpt lat="47.554" lon="10.7429">
        <time>2015-05-05T00:02:31Z</time>
        <ele>866</ele>
      </trkpt>
      <trkpt lat="47.554" lon="10.743">
        <time>2015-05-05T00:02:38Z</time>
        <ele>868</ele>
      </trkpt>
      <trkpt lat="47.5541" lon="10.7432">
        <time>2015-05-05T00:02:45Z</time>
        <ele>870</ele>
      </trkpt>
      <trkpt lat="47.5541" lon="10.7437">
        <time>2015-05-05T00:03:10Z</time>
        <ele>877</ele>
      </trkpt>
      <trkpt lat="47.554" lon="10.7438">
        <time>2015-05-05T00:03:18Z</time>
        <ele>879</ele>
      </trkpt>
      <trkpt lat="47.554" lon="10.744">
        <time>2015-05-05T00:03:25Z</time>
        <ele>881</ele>
      </trkpt>
      <trkpt lat="47.5542" lon="10.744">
        <time>2015-05-05T00:03:39Z</time>
        <ele>885</ele>
      </trkpt>
      <trkpt lat="47.5546" lon="10.7445">
        <time>2015-05-05T00:04:12Z</time>
        <ele>894</ele>
      </trkpt>
      <trkpt lat="47.5547" lon="10.7449">
        <time>2015-05-05T00:04:26Z</time>
        <ele>898</ele>
      </trkpt>
      <trkpt lat="47.5546" lon="10.745">
        <time>2015-05-05T00:04:37Z</time>
        <ele>901</ele>
      </trkpt>
      <trkpt lat="47.5544" lon="10.745">
        <time>2015-05-05T00:04:51Z</time>
        <ele>905</ele>
      </trkpt>
      <trkpt lat="47.5542" lon="10.7449">
        <time>2015-05-05T00:05:13Z</time>
        <ele>911</ele>
      </trkpt>
      <trkpt lat="47.5541" lon="10.7449">
        <time>2015-05-05T00:05:24Z</time>
        <ele>914</ele>
      </trkpt>
      <trkpt lat="47.554" lon="10.745">
        <time>2015-05-05T00:05:34Z</time>
        <ele>917</ele>
      </trkpt>
      <trkpt lat="47.554" lon="10.7453">
        <time>2015-05-05T00:05:52Z</time>
        <ele>922</ele>
      </trkpt>
      <trkpt lat="47.554" lon="10.7455">
        <time>2015-05-05T00:06:03Z</time>
        <ele>925</ele>
      </trkpt>
      <trkpt lat="47.554" lon="10.7456">
        <time>2015-05-05T00:06:10Z</time>
        <ele>927</ele>
      </trkpt>
      <trkpt lat="47.5538" lon="10.7469">
        <time>2015-05-05T00:07:30Z</time>
        <ele>949</ele>
      </trkpt>
      <trkpt lat="47.5539" lon="10.7472">
        <time>2015-05-05T00:07:44Z</time>
        <ele>953</ele>
      </trkpt>
      <trkpt lat="47.554" lon="10.7473">
        <time>2015-05-05T00:07:55Z</time>
        <ele>956</ele>
      </trkpt>
      <trkpt lat="47.5541" lon="10.7473">
        <time>2015-05-05T00:08:02Z</time>
        <ele>958</ele>
      </trkpt>
      <trkpt lat="47.5542" lon="10.7472">
        <time>2015-05-05T00:08:09Z</time>
        <ele>960</ele>
      </trkpt>
      <trkpt lat="47.5544" lon="10.7471">
        <time>2015-05-05T00:08:24Z</time>
        <ele>964</ele>
      </trkpt>
      <trkpt lat="47.5545" lon="10.7471">
        <time>2015-05-05T00:08:27Z</time>
        <ele>965</ele>
      </trkpt>
      <trkpt lat="47.5546" lon="10.7472">
        <time>2015-05-05T00:08:31Z</time>
        <ele>966</ele>
      </trkpt>
      <trkpt lat="47.5546" lon="10.7473">
        <time>2015-05-05T00:08:32Z</time>
        <ele>966</ele>
      </trkpt>
      <trkpt lat="47.5546" lon="10.7476">
        <time>2015-05-05T00:08:42Z</time>
        <ele>969</ele>
      </trkpt>
      <trkpt lat="47.5547" lon="10.748">
        <time>2015-05-05T00:08:50Z</time>
        <ele>971</ele>
      </trkpt>
      <trkpt lat="47.5546" lon="10.748">
        <time>2015-05-05T00:08:53Z</time>
        <ele>972</ele>
      </trkpt>
      <trkpt lat="47.5545" lon="10.7481">
        <time>2015-05-05T00:08:57Z</time>
        <ele>973</ele>
      </trkpt>
      <trkpt lat="47.5545" lon="10.7481">
        <time>2015-05-05T00:08:58Z</time>
        <ele>973</ele>
      </trkpt>
      <trkpt lat="47.5545" lon="10.7482">
        <time>2015-05-05T00:09:01Z</time>
        <ele>974</ele>
      </trkpt>
      <trkpt lat="47.5545" lon="10.7483">
        <time>2015-05-05T00:09:02Z</time>
        <ele>974</ele>
      </trkpt>
      <trkpt lat="47.5545" lon="10.7484">
        <time>2015-05-05T00:09:06Z</time>
        <ele>975</ele>
      </trkpt>
      <trkpt lat="47.5545" lon="10.7485">
        <time>2015-05-05T00:09:07Z</time>
        <ele>975</ele>
      </trkpt>
      <trkpt lat="47.5546" lon="10.7485">
        <time>2015-05-05T00:09:08Z</time>
        <ele>975</ele>
      </trkpt>
      <trkpt lat="47.5547" lon="10.7485">
        <time>2015-05-05T00:09:11Z</time>
        <ele>976</ele>
      </trkpt>
      <trkpt lat="47.5549" lon="10.7485">
        <time>2015-05-05T00:09:19Z</time>
        <ele>978</ele>
      </trkpt>
      <trkpt lat="47.5549" lon="10.7485">
        <time>2015-05-05T00:09:19Z</time>
        <ele>978</ele>
      </trkpt>
      <trkpt lat="47.555" lon="10.7485">
        <time>2015-05-05T00:09:20Z</time>
        <ele>978</ele>
      </trkpt>
      <trkpt lat="47.555" lon="10.7488">
        <time>2015-05-05T00:09:23Z</time>
        <ele>979</ele>
      </trkpt>
      <trkpt lat="47.555" lon="10.749">
        <time>2015-05-05T00:09:27Z</time>
        <ele>980</ele>
      </trkpt>
      <trkpt lat="47.555" lon="10.7491">
        <time>2015-05-05T00:09:31Z</time>
        <ele>981</ele>
      </trkpt>
      <trkpt lat="47.5549" lon="10.7494">
        <time>2015-05-05T00:09:34Z</time>
        <ele>982</ele>
      </trkpt>
      <trkpt lat="47.5549" lon="10.7496">
        <time>2015-05-05T00:09:41Z</time>
        <ele>984</ele>
      </trkpt>
      <trkpt lat="47.5548" lon="10.7497">
        <time>2015-05-05T00:09:42Z</time>
        <ele>984</ele>
      </trkpt>
      <trkpt lat="47.5547" lon="10.75">
        <time>2015-05-05T00:09:53Z</time>
        <ele>987</ele>
      </trkpt>
      <trkpt lat="47.5546" lon="10.7502">
        <time>2015-05-05T00:10:00Z</time>
        <ele>989</ele>
      </trkpt>
      <trkpt lat="47.5545" lon="10.7506">
        <time>2015-05-05T00:10:08Z</time>
        <ele>991</ele>
      </trkpt>
      <trkpt lat="47.5546" lon="10.7505">
        <time>2015-05-05T00:10:15Z</time>
        <ele>993</ele>
      </trkpt>
      <trkpt lat="47.5545" lon="10.7509">
        <time>2015-05-05T00:10:29Z</time>
        <ele>997</ele>
      </trkpt>
      <trkpt lat="47.5547" lon="10.7505">
        <time>2015-05-05T00:10:44Z</time>
        <ele>1001</ele>
      </trkpt>
      <trkpt lat="47.5549" lon="10.7501">
        <time>2015-05-05T00:11:05Z</time>
        <ele>1007</ele>
      </trkpt>
      <trkpt lat="47.5548" lon="10.7505">
        <time>2015-05-05T00:11:23Z</time>
        <ele>1012</ele>
      </trkpt>
      <trkpt lat="47.5547" lon="10.7509">
        <time>2015-05-05T00:11:45Z</time>
        <ele>1018</ele>
      </trkpt>
      <trkpt lat="47.5551" lon="10.7511">
        <time>2015-05-05T00:12:32Z</time>
        <ele>1031</ele>
      </trkpt>
      <trkpt lat="47.5553" lon="10.7519">
        <time>2015-05-05T00:13:47Z</time>
        <ele>1052</ele>
      </trkpt>
      <trkpt lat="47.5556" lon="10.7528">
        <time>2015-05-05T00:15:35Z</time>
        <ele>1082</ele>
      </trkpt>
      <trkpt lat="47.5557" lon="10.7532">
        <time>2015-05-05T00:16:15Z</time>
        <ele>1093</ele>
      </trkpt>
      <trkpt lat="47.5561" lon="10.7539">
        <time>2015-05-05T00:17:16Z</time>
        <ele>1110</ele>
      </trkpt>
      <trkpt lat="47.5559" lon="10.7543">
        <time>2015-05-05T00:17:41Z</time>
        <ele>1117</ele>
      </trkpt>
      <trkpt lat="47.5561" lon="10.7543">
        <time>2015-05-05T00:17:52Z</time>
        <ele>1120</ele>
      </trkpt>
      <trkpt lat="47.556" lon="10.7545">
        <time>2015-05-05T00:18:03Z</time>
        <ele>1123</ele>
      </trkpt>
      <trkpt lat="47.5557" lon="10.7547">
        <time>2015-05-05T00:18:24Z</time>
        <ele>1129</ele>
      </trkpt>
      <trkpt lat="47.5561" lon="10.7546">
        <time>2015-05-05T00:18:53Z</time>
        <ele>1137</ele>
      </trkpt>
      <trkpt lat="47.5561" lon="10.7547">
        <time>2015-05-05T00:19:00Z</time>
        <ele>1139</ele>
      </trkpt>
      <trkpt lat="47.5558" lon="10.7549">
        <time>2015-05-05T00:19:22Z</time>
        <ele>1145</ele>
      </trkpt>
      <trkpt lat="47.556" lon="10.7549">
        <time>2015-05-05T00:19:44Z</time>
        <ele>1151</ele>
      </trkpt>
      <trkpt lat="47.5562" lon="10.7549">
        <time>2015-05-05T00:20:02Z</time>
        <ele>1156</ele>
      </trkpt>
      <trkpt lat="47.5564" lon="10.7548">
        <time>2015-05-05T00:20:16Z</time>
        <ele>1160</ele>
      </trkpt>
      <trkpt lat="47.5562" lon="10.7551">
        <time>2015-05-05T00:20:41Z</time>
        <ele>1167</ele>
      </trkpt>
      <trkpt lat="47.556" lon="10.7553">
        <time>2015-05-05T00:21:03Z</time>
        <ele>1173</ele>
      </trkpt>
      <trkpt lat="47.556" lon="10.7553">
        <time>2015-05-05T00:21:06Z</time>
        <ele>1174</ele>
      </trkpt>
      <trkpt lat="47.556" lon="10.7554">
        <time>2015-05-05T00:21:14Z</time>
        <ele>1176</ele>
      </trkpt>
      <trkpt lat="47.5562" lon="10.7553">
        <time>2015-05-05T00:21:39Z</time>
        <ele>1183</ele>
      </trkpt>
      <trkpt lat="47.5563" lon="10.7554">
        <time>2015-05-05T00:21:46Z</time>
        <ele>1185</ele>
      </trkpt>
      <trkpt lat="47.5562" lon="10.7556">
        <time>2015-05-05T00:22:04Z</time>
        <ele>1190</ele>
      </trkpt>
      <trkpt lat="47.5562" lon="10.7558">
        <time>2015-05-05T00:22:18Z</time>
        <ele>1194</ele>
      </trkpt>
      <trkpt lat="47.5563" lon="10.7558">
        <time>2015-05-05T00:22:26Z</time>
        <ele>1196</ele>
      </trkpt>
      <trkpt lat="47.5564" lon="10.7557">
        <time>2015-05-05T00:22:36Z</time>
        <ele>1199</ele>
      </trkpt>
      <trkpt lat="47.5565" lon="10.7558">
        <time>2015-05-05T00:22:44Z</time>
        <ele>1201</ele>
      </trkpt>
      <trkpt lat="47.5563" lon="10.7562">
        <time>2015-05-05T00:23:16Z</time>
        <ele>1210</ele>
      </trkpt>
      <trkpt lat="47.5564" lon="10.7562">
        <time>2015-05-05T00:23:27Z</time>
        <ele>1213</ele>
      </trkpt>
      <trkpt lat="47.5565" lon="10.756">
        <time>2015-05-05T00:23:41Z</time>
        <ele>1217</ele>
      </trkpt>
      <trkpt lat="47.5566" lon="10.756">
        <time>2015-05-05T00:23:42Z</time>
        <ele>1217</ele>
      </trkpt>
      <trkpt lat="47.5566" lon="10.7562">
        <time>2015-05-05T00:23:56Z</time>
        <ele>1221</ele>
      </trkpt>
      <trkpt lat="47.5565" lon="10.7562">
        <time>2015-05-05T00:24:00Z</time>
        <ele>1222</ele>
      </trkpt>
      <trkpt lat="47.5564" lon="10.7564">
        <time>2015-05-05T00:24:14Z</time>
        <ele>1226</ele>
      </trkpt>
      <trkpt lat="47.5563" lon="10.7567">
        <time>2015-05-05T00:24:36Z</time>
        <ele>1232</ele>
      </trkpt>
      <trkpt lat="47.5564" lon="10.7568">
        <time>2015-05-05T00:24:43Z</time>
        <ele>1234</ele>
      </trkpt>
      <trkpt lat="47.5563" lon="10.7569">
        <time>2015-05-05T00:24:50Z</time>
        <ele>1236</ele>
      </trkpt>
      <trkpt lat="47.5561" lon="10.757">
        <time>2015-05-05T00:25:15Z</time>
        <ele>1243</ele>
      </trkpt>
      <trkpt lat="47.5561" lon="10.7573">
        <time>2015-05-05T00:25:33Z</time>
        <ele>1248</ele>
      </trkpt>
      <trkpt lat="47.5562" lon="10.7571">
        <time>2015-05-05T00:25:48Z</time>
        <ele>1252</ele>
      </trkpt>
      <trkpt lat="47.5563" lon="10.757">
        <time>2015-05-05T00:26:02Z</time>
        <ele>1256</ele>
      </trkpt>
      <trkpt lat="47.5564" lon="10.757">
        <time>2015-05-05T00:26:17Z</time>
        <ele>1260</ele>
      </trkpt>
      <trkpt lat="47.5566" lon="10.757">
        <time>2015-05-05T00:26:31Z</time>
        <ele>1264</ele>
      </trkpt>
      <trkpt lat="47.5567" lon="10.757">
        <time>2015-05-05T00:26:42Z</time>
        <ele>1267</ele>
      </trkpt>
      <trkpt lat="47.5566" lon="10.757">
        <time>2015-05-05T00:26:49Z</time>
        <ele>1269</ele>
      </trkpt>
      <trkpt lat="47.5564" lon="10.7572">
        <time>2015-05-05T00:27:11Z</time>
        <ele>1275</ele>
      </trkpt>
      <trkpt lat="47.5564" lon="10.7574">
        <time>2015-05-05T00:27:25Z</time>
        <ele>1279</ele>
      </trkpt>
      <trkpt lat="47.5563" lon="10.7576">
        <time>2015-05-05T00:27:39Z</time>
        <ele>1283</ele>
      </trkpt>
      <trkpt lat="47.5562" lon="10.7577">
        <time>2015-05-05T00:27:50Z</time>
        <ele>1286</ele>
      </trkpt>
      <trkpt lat="47.5562" lon="10.7578">
        <time>2015-05-05T00:27:54Z</time>
        <ele>1287</ele>
      </trkpt>
      <trkpt lat="47.5563" lon="10.7578">
        <time>2015-05-05T00:27:57Z</time>
        <ele>1288</ele>
      </trkpt>
      <trkpt lat="47.5564" lon="10.7577">
        <time>2015-05-05T00:28:12Z</time>
        <ele>1292</ele>
      </trkpt>
      <trkpt lat="47.5564" lon="10.7578">
        <time>2015-05-05T00:28:19Z</time>
        <ele>1294</ele>
      </trkpt>
      <trkpt lat="47.5563" lon="10.7579">
        <time>2015-05-05T00:28:30Z</time>
        <ele>1297</ele>
      </trkpt>
      <trkpt lat="47.5563" lon="10.758">
        <time>2015-05-05T00:28:37Z</time>
        <ele>1299</ele>
      </trkpt>
      <trkpt lat="47.5562" lon="10.7581">
        <time>2015-05-05T00:28:48Z</time>
        <ele>1302</ele>
      </trkpt>
      <trkpt lat="47.5562" lon="10.7582">
        <time>2015-05-05T00:28:51Z</time>
        <ele>1303</ele>
      </trkpt>
      <trkpt lat="47.5562" lon="10.7582">
        <time>2015-05-05T00:28:52Z</time>
        <ele>1303</ele>
      </trkpt>
      <trkpt lat="47.5563" lon="10.7581">
        <time>2015-05-05T00:29:06Z</time>
        <ele>1307</ele>
      </trkpt>
      <trkpt lat="47.5564" lon="10.7581">
        <time>2015-05-05T00:29:13Z</time>
        <ele>1309</ele>
      </trkpt>
      <trkpt lat="47.5565" lon="10.758">
        <time>2015-05-05T00:29:17Z</time>
        <ele>1310</ele>
      </trkpt>
      <trkpt lat="47.5565" lon="10.758">
        <time>2015-05-05T00:29:21Z</time>
        <ele>1311</ele>
      </trkpt>
      <trkpt lat="47.5565" lon="10.7582">
        <time>2015-05-05T00:29:28Z</time>
        <ele>1313</ele>
      </trkpt>
      <trkpt lat="47.5564" lon="10.7583">
        <time>2015-05-05T00:29:39Z</time>
        <ele>1316</ele>
      </trkpt>
      <trkpt lat="47.5563" lon="10.7584">
        <time>2015-05-05T00:29:46Z</time>
        <ele>1318</ele>
      </trkpt>
      <trkpt lat="47.5564" lon="10.7584">
        <time>2015-05-05T00:29:49Z</time>
        <ele>1319</ele>
      </trkpt>
      <trkpt lat="47.5564" lon="10.7584">
        <time>2015-05-05T00:29:53Z</time>
        <ele>1320</ele>
      </trkpt>
      <trkpt lat="47.5565" lon="10.7584">
        <time>2015-05-05T00:30:00Z</time>
        <ele>1322</ele>
      </trkpt>
      <trkpt lat="47.5566" lon="10.7583">
        <time>2015-05-05T00:30:04Z</time>
        <ele>1323</ele>
      </trkpt>
      <trkpt lat="47.5566" lon="10.7584">
        <time>2015-05-05T00:30:07Z</time>
        <ele>1324</ele>
      </trkpt>
      <trkpt lat="47.5565" lon="10.7585">
        <time>2015-05-05T00:30:15Z</time>
        <ele>1326</ele>
      </trkpt>
      <trkpt lat="47.5565" lon="10.7585">
        <time>2015-05-05T00:30:15Z</time>
        <ele>1326</ele>
      </trkpt>
      <trkpt lat="47.5567" lon="10.7585">
        <time>2015-05-05T00:30:26Z</time>
        <ele>1329</ele>
      </trkpt>
      <trkpt lat="47.5567" lon="10.7584">
        <time>2015-05-05T00:30:33Z</time>
        <ele>1331</ele>
      </trkpt>
      <trkpt lat="47.5568" lon="10.7583">
        <time>2015-05-05T00:30:40Z</time>
        <ele>1333</ele>
      </trkpt>
      <trkpt lat="47.5568" lon="10.7584">
        <time>2015-05-05T00:30:44Z</time>
        <ele>1334</ele>
      </trkpt>
      <trkpt lat="47.5568" lon="10.7585">
        <time>2015-05-05T00:30:51Z</time>
        <ele>1336</ele>
      </trkpt>
      <trkpt lat="47.5567" lon="10.7586">
        <time>2015-05-05T00:30:58Z</time>
        <ele>1338</ele>
      </trkpt>
      <trkpt lat="47.5567" lon="10.7587">
        <time>2015-05-05T00:31:05Z</time>
        <ele>1340</ele>
      </trkpt>
      <trkpt lat="47.5568" lon="10.7587">
        <time>2015-05-05T00:31:16Z</time>
        <ele>1343</ele>
      </trkpt>
      <trkpt lat="47.5568" lon="10.7588">
        <time>2015-05-05T00:31:23Z</time>
        <ele>1345</ele>
      </trkpt>
      <trkpt lat="47.5567" lon="10.7588">
        <time>2015-05-05T00:31:30Z</time>
        <ele>1347</ele>
      </trkpt>
      <trkpt lat="47.5568" lon="10.7589">
        <time>2015-05-05T00:31:41Z</time>
        <ele>1350</ele>
      </trkpt>
      <trkpt lat="47.5569" lon="10.759">
        <time>2015-05-05T00:31:48Z</time>
        <ele>1352</ele>
      </trkpt>
      <trkpt lat="47.5568" lon="10.759">
        <time>2015-05-05T00:31:56Z</time>
        <ele>1354</ele>
      </trkpt>
      <trkpt lat="47.5567" lon="10.7591">
        <time>2015-05-05T00:32:06Z</time>
        <ele>1357</ele>
      </trkpt>
      <trkpt lat="47.5567" lon="10.7592">
        <time>2015-05-05T00:32:17Z</time>
        <ele>1360</ele>
      </trkpt>
      <trkpt lat="47.5566" lon="10.7593">
        <time>2015-05-05T00:32:32Z</time>
        <ele>1364</ele>
      </trkpt>
      <trkpt lat="47.5567" lon="10.7594">
        <time>2015-05-05T00:32:39Z</time>
        <ele>1366</ele>
      </trkpt>
      <trkpt lat="47.5566" lon="10.7595">
        <time>2015-05-05T00:32:53Z</time>
        <ele>1370</ele>
      </trkpt>
      <trkpt lat="47.5564" lon="10.7595">
        <time>2015-05-05T00:33:04Z</time>
        <ele>1373</ele>
      </trkpt>
      <trkpt lat="47.5563" lon="10.7593">
        <time>2015-05-05T00:33:22Z</time>
        <ele>1378</ele>
      </trkpt>
      <trkpt lat="47.5563" lon="10.7596">
        <time>2015-05-05T00:33:40Z</time>
        <ele>1383</ele>
      </trkpt>
      <trkpt lat="47.5564" lon="10.7598">
        <time>2015-05-05T00:33:58Z</time>
        <ele>1388</ele>
      </trkpt>
      <trkpt lat="47.5564" lon="10.76">
        <time>2015-05-05T00:34:16Z</time>
        <ele>1393</ele>
      </trkpt>
      <trkpt lat="47.5564" lon="10.7602">
        <time>2015-05-05T00:34:30Z</time>
        <ele>1397</ele>
      </trkpt>
      <trkpt lat="47.5565" lon="10.7599">
        <time>2015-05-05T00:34:56Z</time>
        <ele>1404</ele>
      </trkpt>
      <trkpt lat="47.5566" lon="10.7602">
        <time>2015-05-05T00:35:17Z</time>
        <ele>1410</ele>
      </trkpt>
      <trkpt lat="47.5566" lon="10.7604">
        <time>2015-05-05T00:35:32Z</time>
        <ele>1414</ele>
      </trkpt>
      <trkpt lat="47.5566" lon="10.7606">
        <time>2015-05-05T00:35:39Z</time>
        <ele>1416</ele>
      </trkpt>
      <trkpt lat="47.5567" lon="10.7607">
        <time>2015-05-05T00:35:50Z</time>
        <ele>1419</ele>
      </trkpt>
      <trkpt lat="47.5568" lon="10.7608">
        <time>2015-05-05T00:35:57Z</time>
        <ele>1421</ele>
      </trkpt>
      <trkpt lat="47.5568" lon="10.7609">
        <time>2015-05-05T00:36:04Z</time>
        <ele>1423</ele>
      </trkpt>
      <trkpt lat="47.5568" lon="10.761">
        <time>2015-05-05T00:36:08Z</time>
        <ele>1424</ele>
      </trkpt>
      <trkpt lat="47.5568" lon="10.7612">
        <time>2015-05-05T00:36:15Z</time>
        <ele>1426</ele>
      </trkpt>
      <trkpt lat="47.5567" lon="10.7615">
        <time>2015-05-05T00:36:29Z</time>
        <ele>1430</ele>
      </trkpt>
      <trkpt lat="47.5568" lon="10.7617">
        <time>2015-05-05T00:36:36Z</time>
        <ele>1432</ele>
      </trkpt>
      <trkpt lat="47.557" lon="10.7619">
        <time>2015-05-05T00:36:47Z</time>
        <ele>1435</ele>
      </trkpt>
      <trkpt lat="47.5571" lon="10.762">
        <time>2015-05-05T00:36:51Z</time>
        <ele>1436</ele>
      </trkpt>
      <trkpt lat="47.5572" lon="10.7621">
        <time>2015-05-05T00:36:58Z</time>
        <ele>1438</ele>
      </trkpt>
      <trkpt lat="47.5573" lon="10.7622">
        <time>2015-05-05T00:37:02Z</time>
        <ele>1439</ele>
      </trkpt>
      <trkpt lat="47.5574" lon="10.7622">
        <time>2015-05-05T00:37:05Z</time>
        <ele>1440</ele>
      </trkpt>
      <trkpt lat="47.5576" lon="10.7624">
        <time>2015-05-05T00:37:12Z</time>
        <ele>1442</ele>
      </trkpt>
      <trkpt lat="47.5576" lon="10.7625">
        <time>2015-05-05T00:37:16Z</time>
        <ele>1443</ele>
      </trkpt>
      <trkpt lat="47.5576" lon="10.7627">
        <time>2015-05-05T00:37:18Z</time>
        <ele>1443</ele>
      </trkpt>
      <trkpt lat="47.5577" lon="10.7629">
        <time>2015-05-05T00:37:21Z</time>
        <ele>1444</ele>
      </trkpt>
      <trkpt lat="47.5578" lon="10.7633">
        <time>2015-05-05T00:37:29Z</time>
        <ele>1446</ele>
      </trkpt>
      <trkpt lat="47.5579" lon="10.7636">
        <time>2015-05-05T00:37:32Z</time>
        <ele>1447</ele>
      </trkpt>
      <trkpt lat="47.558" lon="10.7637">
        <time>2015-05-05T00:37:34Z</time>
        <ele>1447</ele>
      </trkpt>
      <trkpt lat="47.5581" lon="10.7639">
        <time>2015-05-05T00:37:36Z</time>
        <ele>1447</ele>
      </trkpt>
      <trkpt lat="47.5582" lon="10.764">
        <time>2015-05-05T00:37:38Z</time>
        <ele>1447</ele>
      </trkpt>
      <trkpt lat="47.5582" lon="10.7641">
        <time>2015-05-05T00:37:39Z</time>
        <ele>1447</ele>
      </trkpt>
      <trkpt lat="47.5582" lon="10.7642">
        <time>2015-05-05T00:37:40Z</time>
        <ele>1447</ele>
      </trkpt>
      <trkpt lat="47.5584" lon="10.7644">
        <time>2015-05-05T00:37:43Z</time>
        <ele>1447</ele>
      </trkpt>
      <trkpt lat="47.5585" lon="10.7646">
        <time>2015-05-05T00:37:45Z</time>
        <ele>1446</ele>
      </trkpt>
      <trkpt lat="47.5586" lon="10.7646">
        <time>2015-05-05T00:37:45Z</time>
        <ele>1446</ele>
      </trkpt>
      <trkpt lat="47.5585" lon="10.7648">
        <time>2015-05-05T00:37:47Z</time>
        <ele>1446</ele>
      </trkpt>
      <trkpt lat="47.5586" lon="10.7649">
        <time>2015-05-05T00:37:48Z</time>
        <ele>1446</ele>
      </trkpt>
      <trkpt lat="47.5587" lon="10.7651">
        <time>2015-05-05T00:37:50Z</time>
        <ele>1445</ele>
      </trkpt>
      <trkpt lat="47.5587" lon="10.7654">
        <time>2015-05-05T00:37:52Z</time>
        <ele>1444</ele>
      </trkpt>
      <trkpt lat="47.5589" lon="10.7658">
        <time>2015-05-05T00:37:57Z</time>
        <ele>1444</ele>
      </trkpt>
      <trkpt lat="47.5592" lon="10.7661">
        <time>2015-05-05T00:38:01Z</time>
        <ele>1445</ele>
      </trkpt>
      <trkpt lat="47.5594" lon="10.7661">
        <time>2015-05-05T00:38:03Z</time>
        <ele>1445</ele>
      </trkpt>
      <trkpt lat="47.5595" lon="10.7661">
        <time>2015-05-05T00:38:07Z</time>
        <ele>1446</ele>
      </trkpt>
      <trkpt lat="47.5597" lon="10.7666">
        <time>2015-05-05T00:38:18Z</time>
        <ele>1449</ele>
      </trkpt>
      <trkpt lat="47.5596" lon="10.7668">
        <time>2015-05-05T00:38:28Z</time>
        <ele>1452</ele>
      </trkpt>
      <trkpt lat="47.5597" lon="10.7672">
        <time>2015-05-05T00:38:43Z</time>
        <ele>1456</ele>
      </trkpt>
      <trkpt lat="47.5597" lon="10.7676">
        <time>2015-05-05T00:39:01Z</time>
        <ele>1461</ele>
      </trkpt>
      <trkpt lat="47.5596" lon="10.7679">
        <time>2015-05-05T00:39:19Z</time>
        <ele>1466</ele>
      </trkpt>
      <trkpt lat="47.5595" lon="10.7683">
        <time>2015-05-05T00:39:33Z</time>
        <ele>1470</ele>
      </trkpt>
      <trkpt lat="47.5595" lon="10.7685">
        <time>2015-05-05T00:39:37Z</time>
        <ele>1471</ele>
      </trkpt>
      <trkpt lat="47.5595" lon="10.7689">
        <time>2015-05-05T00:39:51Z</time>
        <ele>1475</ele>
      </trkpt>
      <trkpt lat="47.5596" lon="10.7692">
        <time>2015-05-05T00:39:58Z</time>
        <ele>1477</ele>
      </trkpt>
      <trkpt lat="47.5596" lon="10.7694">
        <time>2015-05-05T00:40:06Z</time>
        <ele>1479</ele>
      </trkpt>
      <trkpt lat="47.5598" lon="10.7697">
        <time>2015-05-05T00:40:13Z</time>
        <ele>1481</ele>
      </trkpt>
      <trkpt lat="47.5598" lon="10.7698">
        <time>2015-05-05T00:40:14Z</time>
        <ele>1481</ele>
      </trkpt>
      <trkpt lat="47.5596" lon="10.7697">
        <time>2015-05-05T00:40:17Z</time>
        <ele>1482</ele>
      </trkpt>
      <trkpt lat="47.5595" lon="10.7697">
        <time>2015-05-05T00:40:21Z</time>
        <ele>1483</ele>
      </trkpt>
      <trkpt lat="47.5598" lon="10.7701">
        <time>2015-05-05T00:40:28Z</time>
        <ele>1485</ele>
      </trkpt>
      <trkpt lat="47.56" lon="10.7703">
        <time>2015-05-05T00:40:35Z</time>
        <ele>1487</ele>
      </trkpt>
      <trkpt lat="47.56" lon="10.7703">
        <time>2015-05-05T00:40:36Z</time>
        <ele>1487</ele>
      </trkpt>
      <trkpt lat="47.56" lon="10.7703">
        <time>2015-05-05T00:40:36Z</time>
        <ele>1487</ele>
      </trkpt>
      <trkpt lat="47.5598" lon="10.7704">
        <time>2015-05-05T00:40:43Z</time>
        <ele>1489</ele>
      </trkpt>
      <trkpt lat="47.5598" lon="10.7704">
        <time>2015-05-05T00:40:43Z</time>
        <ele>1489</ele>
      </trkpt>
      <trkpt lat="47.5598" lon="10.7704">
        <time>2015-05-05T00:40:44Z</time>
        <ele>1489</ele>
      </trkpt>
      <trkpt lat="47.56" lon="10.7705">
        <time>2015-05-05T00:40:51Z</time>
        <ele>1491</ele>
      </trkpt>
      <trkpt lat="47.5601" lon="10.7707">
        <time>2015-05-05T00:40:58Z</time>
        <ele>1493</ele>
      </trkpt>
      <trkpt lat="47.5603" lon="10.7707">
        <time>2015-05-05T00:41:05Z</time>
        <ele>1495</ele>
      </trkpt>
      <trkpt lat="47.5603" lon="10.7707">
        <time>2015-05-05T00:41:05Z</time>
        <ele>1495</ele>
      </trkpt>
      <trkpt lat="47.5603" lon="10.7707">
        <time>2015-05-05T00:41:06Z</time>
        <ele>1495</ele>
      </trkpt>
      <trkpt lat="47.5601" lon="10.7709">
        <time>2015-05-05T00:41:17Z</time>
        <ele>1498</ele>
      </trkpt>
      <trkpt lat="47.56" lon="10.771">
        <time>2015-05-05T00:41:24Z</time>
        <ele>1500</ele>
      </trkpt>
      <trkpt lat="47.5602" lon="10.7711">
        <time>2015-05-05T00:41:35Z</time>
        <ele>1503</ele>
      </trkpt>
      <trkpt lat="47.5602" lon="10.7713">
        <time>2015-05-05T00:41:38Z</time>
        <ele>1504</ele>
      </trkpt>
      <trkpt lat="47.5601" lon="10.7715">
        <time>2015-05-05T00:41:49Z</time>
        <ele>1507</ele>
      </trkpt>
      <trkpt lat="47.56" lon="10.7717">
        <time>2015-05-05T00:42:00Z</time>
        <ele>1510</ele>
      </trkpt>
      <trkpt lat="47.5599" lon="10.7721">
        <time>2015-05-05T00:42:25Z</time>
        <ele>1517</ele>
      </trkpt>
      <trkpt lat="47.5598" lon="10.7723">
        <time>2015-05-05T00:42:36Z</time>
        <ele>1520</ele>
      </trkpt>
      <trkpt lat="47.5599" lon="10.7726">
        <time>2015-05-05T00:42:50Z</time>
        <ele>1524</ele>
      </trkpt>
      <trkpt lat="47.5599" lon="10.7728">
        <time>2015-05-05T00:43:01Z</time>
        <ele>1527</ele>
      </trkpt>
      <trkpt lat="47.5599" lon="10.7729">
        <time>2015-05-05T00:43:08Z</time>
        <ele>1529</ele>
      </trkpt>
      <trkpt lat="47.5599" lon="10.773">
        <time>2015-05-05T00:43:19Z</time>
        <ele>1532</ele>
      </trkpt>
      <trkpt lat="47.56" lon="10.7732">
        <time>2015-05-05T00:43:33Z</time>
        <ele>1536</ele>
      </trkpt>
      <trkpt lat="47.5601" lon="10.7735">
        <time>2015-05-05T00:43:48Z</time>
        <ele>1540</ele>
      </trkpt>
      <trkpt lat="47.5602" lon="10.7737">
        <time>2015-05-05T00:43:59Z</time>
        <ele>1543</ele>
      </trkpt>
      <trkpt lat="47.5603" lon="10.7738">
        <time>2015-05-05T00:44:09Z</time>
        <ele>1546</ele>
      </trkpt>
      <trkpt lat="47.5604" lon="10.774">
        <time>2015-05-05T00:44:24Z</time>
        <ele>1550</ele>
      </trkpt>
      <trkpt lat="47.5604" lon="10.7742">
        <time>2015-05-05T00:44:35Z</time>
        <ele>1553</ele>
      </trkpt>
      <trkpt lat="47.5605" lon="10.7746">
        <time>2015-05-05T00:44:53Z</time>
        <ele>1558</ele>
      </trkpt>
      <trkpt lat="47.5606" lon="10.7748">
        <time>2015-05-05T00:45:07Z</time>
        <ele>1562</ele>
      </trkpt>
      <trkpt lat="47.5607" lon="10.7751">
        <time>2015-05-05T00:45:18Z</time>
        <ele>1565</ele>
      </trkpt>
      <trkpt lat="47.5607" lon="10.7752">
        <time>2015-05-05T00:45:21Z</time>
        <ele>1566</ele>
      </trkpt>
      <trkpt lat="47.5606" lon="10.7754">
        <time>2015-05-05T00:45:29Z</time>
        <ele>1568</ele>
      </trkpt>
      <trkpt lat="47.5605" lon="10.7755">
        <time>2015-05-05T00:45:39Z</time>
        <ele>1571</ele>
      </trkpt>
      <trkpt lat="47.5605" lon="10.7758">
        <time>2015-05-05T00:45:47Z</time>
        <ele>1573</ele>
      </trkpt>
      <trkpt lat="47.5604" lon="10.776">
        <time>2015-05-05T00:45:54Z</time>
        <ele>1575</ele>
      </trkpt>
      <trkpt lat="47.5604" lon="10.7761">
        <time>2015-05-05T00:45:57Z</time>
        <ele>1576</ele>
      </trkpt>
      <trkpt lat="47.5605" lon="10.7762">
        <time>2015-05-05T00:46:01Z</time>
        <ele>1577</ele>
      </trkpt>
      <trkpt lat="47.5605" lon="10.7764">
        <time>2015-05-05T00:46:05Z</time>
        <ele>1578</ele>
      </trkpt>
      <trkpt lat="47.5606" lon="10.7764">
        <time>2015-05-05T00:46:08Z</time>
        <ele>1579</ele>
      </trkpt>
      <trkpt lat="47.5606" lon="10.7768">
        <time>2015-05-05T00:46:19Z</time>
        <ele>1582</ele>
      </trkpt>
      <trkpt lat="47.5606" lon="10.7769">
        <time>2015-05-05T00:46:23Z</time>
        <ele>1583</ele>
      </trkpt>
      <trkpt lat="47.5607" lon="10.777">
        <time>2015-05-05T00:46:26Z</time>
        <ele>1584</ele>
      </trkpt>
      <trkpt lat="47.5608" lon="10.7773">
        <time>2015-05-05T00:46:30Z</time>
        <ele>1585</ele>
      </trkpt>
      <trkpt lat="47.5608" lon="10.7773">
        <time>2015-05-05T00:46:33Z</time>
        <ele>1586</ele>
      </trkpt>
      <trkpt lat="47.5609" lon="10.7776">
        <time>2015-05-05T00:46:37Z</time>
        <ele>1587</ele>
      </trkpt>
      <trkpt lat="47.561" lon="10.7777">
        <time>2015-05-05T00:46:44Z</time>
        <ele>1589</ele>
      </trkpt>
      <trkpt lat="47.5612" lon="10.7779">
        <time>2015-05-05T00:46:51Z</time>
        <ele>1591</ele>
      </trkpt>
      <trkpt lat="47.5612" lon="10.7781">
        <time>2015-05-05T00:46:55Z</time>
        <ele>1592</ele>
      </trkpt>
      <trkpt lat="47.5613" lon="10.7782">
        <time>2015-05-05T00:46:59Z</time>
        <ele>1593</ele>
      </trkpt>
      <trkpt lat="47.5613" lon="10.7784">
        <time>2015-05-05T00:47:02Z</time>
        <ele>1594</ele>
      </trkpt>
      <trkpt lat="47.5613" lon="10.7786">
        <time>2015-05-05T00:47:09Z</time>
        <ele>1596</ele>
      </trkpt>
      <trkpt lat="47.5613" lon="10.7789">
        <time>2015-05-05T00:47:17Z</time>
        <ele>1598</ele>
      </trkpt>
      <trkpt lat="47.5614" lon="10.7792">
        <time>2015-05-05T00:47:24Z</time>
        <ele>1600</ele>
      </trkpt>
      <trkpt lat="47.5614" lon="10.7794">
        <time>2015-05-05T00:47:31Z</time>
        <ele>1602</ele>
      </trkpt>
      <trkpt lat="47.5616" lon="10.7795">
        <time>2015-05-05T00:47:38Z</time>
        <ele>1604</ele>
      </trkpt>
      <trkpt lat="47.5618" lon="10.7797">
        <time>2015-05-05T00:47:53Z</time>
        <ele>1608</ele>
      </trkpt>
      <trkpt lat="47.5619" lon="10.7798">
        <time>2015-05-05T00:47:53Z</time>
        <ele>1608</ele>
      </trkpt>
      <trkpt lat="47.5619" lon="10.7798">
        <time>2015-05-05T00:47:57Z</time>
        <ele>1609</ele>
      </trkpt>
      <trkpt lat="47.5618" lon="10.7799">
        <time>2015-05-05T00:48:01Z</time>
        <ele>1610</ele>
      </trkpt>
      <trkpt lat="47.5616" lon="10.78">
        <time>2015-05-05T00:48:08Z</time>
        <ele>1612</ele>
      </trkpt>
      <trkpt lat="47.5615" lon="10.7799">
        <time>2015-05-05T00:48:19Z</time>
        <ele>1615</ele>
      </trkpt>
      <trkpt lat="47.5614" lon="10.7798">
        <time>2015-05-05T00:48:26Z</time>
        <ele>1617</ele>
      </trkpt>
      <trkpt lat="47.5612" lon="10.7797">
        <time>2015-05-05T00:48:33Z</time>
        <ele>1619</ele>
      </trkpt>
      <trkpt lat="47.5612" lon="10.7797">
        <time>2015-05-05T00:48:37Z</time>
        <ele>1620</ele>
      </trkpt>
      <trkpt lat="47.5612" lon="10.7797">
        <time>2015-05-05T00:48:37Z</time>
        <ele>1620</ele>
      </trkpt>
      <trkpt lat="47.5612" lon="10.7798">
        <time>2015-05-05T00:48:40Z</time>
        <ele>1621</ele>
      </trkpt>
      <trkpt lat="47.5612" lon="10.7798">
        <time>2015-05-05T00:48:41Z</time>
        <ele>1621</ele>
      </trkpt>
      <trkpt lat="47.5612" lon="10.7798">
        <time>2015-05-05T00:48:41Z</time>
        <ele>1621</ele>
      </trkpt>
      <trkpt lat="47.5611" lon="10.7798">
        <time>2015-05-05T00:48:55Z</time>
        <ele>1625</ele>
      </trkpt>
      <trkpt lat="47.5609" lon="10.7799">
        <time>2015-05-05T00:49:09Z</time>
        <ele>1629</ele>
      </trkpt>
      <trkpt lat="47.5606" lon="10.7799">
        <time>2015-05-05T00:49:38Z</time>
        <ele>1637</ele>
      </trkpt>
      <trkpt lat="47.5604" lon="10.7796">
        <time>2015-05-05T00:50:03Z</time>
        <ele>1644</ele>
      </trkpt>
      <trkpt lat="47.5603" lon="10.7793">
        <time>2015-05-05T00:50:29Z</time>
        <ele>1651</ele>
      </trkpt>
      <trkpt lat="47.56" lon="10.779">
        <time>2015-05-05T00:51:05Z</time>
        <ele>1661</ele>
      </trkpt>
      <trkpt lat="47.56" lon="10.7789">
        <time>2015-05-05T00:51:08Z</time>
        <ele>1662</ele>
      </trkpt>
      <trkpt lat="47.5598" lon="10.7786">
        <time>2015-05-05T00:51:44Z</time>
        <ele>1672</ele>
      </trkpt>
      <trkpt lat="47.5594" lon="10.7778">
        <time>2015-05-05T00:52:42Z</time>
        <ele>1688</ele>
      </trkpt>
      <trkpt lat="47.5594" lon="10.7776">
        <time>2015-05-05T00:52:53Z</time>
        <ele>1691</ele>
      </trkpt>
      <trkpt lat="47.5593" lon="10.7776">
        <time>2015-05-05T00:52:53Z</time>
        <ele>1691</ele>
      </trkpt>
      <trkpt lat="47.5593" lon="10.7776">
        <time>2015-05-05T00:52:57Z</time>
        <ele>1692</ele>
      </trkpt>
      <trkpt lat="47.5592" lon="10.7779">
        <time>2015-05-05T00:53:00Z</time>
        <ele>1693</ele>
      </trkpt>
      <trkpt lat="47.5591" lon="10.7781">
        <time>2015-05-05T00:53:07Z</time>
        <ele>1695</ele>
      </trkpt>
      <trkpt lat="47.5591" lon="10.7783">
        <time>2015-05-05T00:53:11Z</time>
        <ele>1696</ele>
      </trkpt>
      <trkpt lat="47.5591" lon="10.7785">
        <time>2015-05-05T00:53:13Z</time>
        <ele>1696</ele>
      </trkpt>
      <trkpt lat="47.5592" lon="10.7787">
        <time>2015-05-05T00:53:16Z</time>
        <ele>1697</ele>
      </trkpt>
      <trkpt lat="47.5593" lon="10.779">
        <time>2015-05-05T00:53:23Z</time>
        <ele>1699</ele>
      </trkpt>
      <trkpt lat="47.5594" lon="10.7794">
        <time>2015-05-05T00:53:31Z</time>
        <ele>1701</ele>
      </trkpt>
      <trkpt lat="47.5594" lon="10.7796">
        <time>2015-05-05T00:53:34Z</time>
        <ele>1702</ele>
      </trkpt>
      <trkpt lat="47.5595" lon="10.7792">
        <time>2015-05-05T00:53:41Z</time>
        <ele>1704</ele>
      </trkpt>
      <trkpt lat="47.5595" lon="10.7795">
        <time>2015-05-05T00:53:45Z</time>
        <ele>1705</ele>
      </trkpt>
      <trkpt lat="47.5595" lon="10.7797">
        <time>2015-05-05T00:53:52Z</time>
        <ele>1707</ele>
      </trkpt>
      <trkpt lat="47.5595" lon="10.7799">
        <time>2015-05-05T00:53:56Z</time>
        <ele>1708</ele>
      </trkpt>
      <trkpt lat="47.5595" lon="10.7801">
        <time>2015-05-05T00:54:03Z</time>
        <ele>1710</ele>
      </trkpt>
      <trkpt lat="47.5591" lon="10.7805">
        <time>2015-05-05T00:54:28Z</time>
        <ele>1717</ele>
      </trkpt>
      <trkpt lat="47.5588" lon="10.7811">
        <time>2015-05-05T00:55:04Z</time>
        <ele>1727</ele>
      </trkpt>
      <trkpt lat="47.5587" lon="10.7816">
        <time>2015-05-05T00:55:40Z</time>
        <ele>1737</ele>
      </trkpt>
      <trkpt lat="47.5587" lon="10.782">
        <time>2015-05-05T00:56:05Z</time>
        <ele>1744</ele>
      </trkpt>
      <trkpt lat="47.5587" lon="10.7825">
        <time>2015-05-05T00:56:41Z</time>
        <ele>1754</ele>
      </trkpt>
      <trkpt lat="47.5587" lon="10.7831">
        <time>2015-05-05T00:57:25Z</time>
        <ele>1766</ele>
      </trkpt>
      <trkpt lat="47.5585" lon="10.7837">
        <time>2015-05-05T00:58:01Z</time>
        <ele>1776</ele>
      </trkpt>
      <trkpt lat="47.5584" lon="10.7838">
        <time>2015-05-05T00:58:11Z</time>
        <ele>1779</ele>
      </trkpt>
      <trkpt lat="47.558" lon="10.784">
        <time>2015-05-05T00:58:40Z</time>
        <ele>1787</ele>
      </trkpt>
      <trkpt lat="47.558" lon="10.7842">
        <time>2015-05-05T00:58:47Z</time>
        <ele>1789</ele>
      </trkpt>
      <trkpt lat="47.5582" lon="10.7843">
        <time>2015-05-05T00:58:58Z</time>
        <ele>1792</ele>
      </trkpt>
      <trkpt lat="47.5583" lon="10.7844">
        <time>2015-05-05T00:59:05Z</time>
        <ele>1794</ele>
      </trkpt>
      <trkpt lat="47.5585" lon="10.7844">
        <time>2015-05-05T00:59:20Z</time>
        <ele>1798</ele>
      </trkpt>
      <trkpt lat="47.5588" lon="10.7843">
        <time>2015-05-05T00:59:31Z</time>
        <ele>1801</ele>
      </trkpt>
      <trkpt lat="47.559" lon="10.7842">
        <time>2015-05-05T00:59:45Z</time>
        <ele>1805</ele>
      </trkpt>
      <trkpt lat="47.559" lon="10.7845">
        <time>2015-05-05T00:59:52Z</time>
        <ele>1807</ele>
      </trkpt>
      <trkpt lat="47.5589" lon="10.7848">
        <time>2015-05-05T00:59:59Z</time>
        <ele>1809</ele>
      </trkpt>
      <trkpt lat="47.5589" lon="10.785">
        <time>2015-05-05T01:00:07Z</time>
        <ele>1811</ele>
      </trkpt>
      <trkpt lat="47.5589" lon="10.7852">
        <time>2015-05-05T01:00:14Z</time>
        <ele>1813</ele>
      </trkpt>
      <trkpt lat="47.559" lon="10.7855">
        <time>2015-05-05T01:00:21Z</time>
        <ele>1815</ele>
      </trkpt>
      <trkpt lat="47.559" lon="10.7857">
        <time>2015-05-05T01:00:25Z</time>
        <ele>1816</ele>
      </trkpt>
      <trkpt lat="47.5591" lon="10.786">
        <time>2015-05-05T01:00:32Z</time>
        <ele>1818</ele>
      </trkpt>
      <trkpt lat="47.5592" lon="10.7863">
        <time>2015-05-05T01:00:39Z</time>
        <ele>1820</ele>
      </trkpt>
      <trkpt lat="47.5593" lon="10.7864">
        <time>2015-05-05T01:00:46Z</time>
        <ele>1822</ele>
      </trkpt>
      <trkpt lat="47.5594" lon="10.7867">
        <time>2015-05-05T01:00:50Z</time>
        <ele>1823</ele>
      </trkpt>
      <trkpt lat="47.5594" lon="10.7869">
        <time>2015-05-05T01:00:53Z</time>
        <ele>1824</ele>
      </trkpt>
      <trkpt lat="47.5594" lon="10.787">
        <time>2015-05-05T01:00:54Z</time>
        <ele>1824</ele>
      </trkpt>
    </trkseg>
  </trk>
</gpx>
